<svg width="16" height="16" viewBox="0 0 16 16" fill="none" xmlns="http://www.w3.org/2000/svg">
<path d="M7.18229 13.4979C8.60553 13.4976 9.98777 13.0211 11.1089 12.1444L14.6338 15.6693L15.7676 14.5355L12.2427 11.0106C13.1199 9.88933 13.5967 8.50678 13.597 7.08317C13.597 3.54626 10.7192 0.668457 7.18229 0.668457C3.64538 0.668457 0.767578 3.54626 0.767578 7.08317C0.767578 10.6201 3.64538 13.4979 7.18229 13.4979ZM7.18229 2.27213C9.83557 2.27213 11.9933 4.42988 11.9933 7.08317C11.9933 9.73645 9.83557 11.8942 7.18229 11.8942C4.529 11.8942 2.37126 9.73645 2.37126 7.08317C2.37126 4.42988 4.529 2.27213 7.18229 2.27213Z" fill="white"/>
</svg>
