<svg width="20" height="21" viewBox="0 0 20 21" fill="none" xmlns="http://www.w3.org/2000/svg">
<path d="M11.5878 7.19772L11.9824 6.75342L11.568 6.36005L11.1734 6.80436L11.5878 7.19772Z" fill="#8D8F92"/>
<path d="M10.7597 6.41257L11.1543 5.96826L10.7399 5.5749L10.3453 6.0192L10.7597 6.41257Z" fill="#8D8F92"/>
<path d="M9.93157 5.62741L10.3262 5.18311L9.91179 4.78974L9.51719 5.23404L9.93157 5.62741Z" fill="#8D8F92"/>
<path d="M12.4159 7.98337L12.8105 7.53906L12.3962 7.1457L12.0016 7.59L12.4159 7.98337Z" fill="#8D8F92"/>
<path d="M13.2421 8.76949L13.6367 8.3252L13.2223 7.93184L12.8277 8.37613L13.2421 8.76949Z" fill="#8D8F92"/>
<path d="M14.0702 9.55466L14.4648 9.11035L14.0505 8.71699L13.6559 9.16129L14.0702 9.55466Z" fill="#8D8F92"/>
<path d="M14.8984 10.3408L15.293 9.89648L14.8786 9.50312L14.484 9.94742L14.8984 10.3408Z" fill="#8D8F92"/>
<path d="M17.664 7.22554L18.0586 6.78125L17.6442 6.3879L17.2496 6.83219L17.664 7.22554Z" fill="#8D8F92"/>
<path d="M7.78508 18.3491L8.17969 17.9048L7.76531 17.5114L7.3707 17.9557L7.78508 18.3491Z" fill="#8D8F92"/>
<path d="M2.82024 13.6357L3.21484 13.1914L2.80046 12.798L2.40586 13.2423L2.82024 13.6357Z" fill="#8D8F92"/>
<path d="M12.6991 2.51218L13.0938 2.06787L12.6794 1.67451L12.2848 2.11881L12.6991 2.51218Z" fill="#8D8F92"/>
<path d="M5.54389 17.4414C5.43489 17.5641 5.43932 17.7518 5.55378 17.8604L7.62641 19.8281C7.74087 19.9368 7.92204 19.9254 8.03104 19.8027L19.4784 6.91219C19.5874 6.78945 19.583 6.60184 19.4685 6.49317L17.3959 4.52544C17.2814 4.41677 17.1003 4.42818 16.9913 4.55092C16.4463 5.16463 15.5404 5.22167 14.9681 4.6783C14.3958 4.13494 14.3736 3.19691 14.9186 2.58319C15.0276 2.46045 15.0232 2.27284 14.9087 2.16417L12.8361 0.196441C12.7217 0.0877728 12.5405 0.0991802 12.4315 0.221918L0.984116 13.1124C0.875119 13.2351 0.879549 13.4228 0.994011 13.5314L3.06663 15.4991C3.1811 15.6078 3.36227 15.5964 3.47127 15.4737C4.01627 14.86 4.92209 14.8029 5.49442 15.3463C6.06675 15.8897 6.0889 16.8277 5.54389 17.4414ZM5.67011 14.7207C4.94538 14.2135 3.96746 14.2751 3.26883 14.8718L1.59601 13.2837L12.6486 0.837713L14.3215 2.42587C13.68 3.38444 13.8908 4.67298 14.7924 5.30394C15.5171 5.81111 16.495 5.74956 17.1937 5.15274L18.8665 6.7409L7.81388 19.1869L6.14107 17.5987C6.78251 16.6402 6.57168 15.3516 5.67011 14.7207Z" fill="#8D8F92"/>
<path d="M12.3026 11.978C12.7385 11.4872 12.7208 10.7371 12.2631 10.3026C11.8054 9.86805 11.081 9.91366 10.6452 10.4044C10.2094 10.8952 10.2271 11.6453 10.6848 12.0799C11.1425 12.5144 11.8668 12.4688 12.3026 11.978ZM11.0596 10.7978C11.2775 10.5524 11.6396 10.5296 11.8685 10.7469C12.0974 10.9642 12.1062 11.3392 11.8883 11.5846C11.6704 11.83 11.3082 11.8528 11.0793 11.6355C10.8505 11.4183 10.8416 11.0432 11.0596 10.7978Z" fill="#8D8F92"/>
<path d="M7.44913 12.291C7.88496 11.8002 7.86725 11.0501 7.40957 10.6156C6.95188 10.181 6.22753 10.2266 5.79169 10.7174C5.35586 11.2082 5.37357 11.9583 5.83125 12.3929C6.28894 12.8274 7.01329 12.7818 7.44913 12.291ZM6.20605 11.1108C6.42398 10.8654 6.78613 10.8426 7.01499 11.0599C7.24384 11.2772 7.2527 11.6522 7.03477 11.8976C6.81684 12.143 6.45469 12.1658 6.22583 11.9485C5.99698 11.7313 5.98812 11.3562 6.20605 11.1108Z" fill="#8D8F92"/>
<path d="M9.40703 14.6815L9.25195 7.979L8.68613 8.0149L8.84121 14.7174L9.40703 14.6815Z" fill="#8D8F92"/>
</svg>
