<svg width="15" height="15" viewBox="0 0 15 15" fill="none" xmlns="http://www.w3.org/2000/svg">
<path d="M13.855 6.56249H13.1252C13.0836 6.41201 12.9942 6.27915 12.8704 6.18401C12.7467 6.08887 12.5953 6.03661 12.4392 6.03514H11.6602V4.13014C11.661 4.09451 11.6524 4.05928 11.6352 4.02807C11.618 3.99686 11.5928 3.97079 11.5621 3.95254L6.06671 0.778462C6.03574 0.76046 6.00055 0.750977 5.96473 0.750977C5.9289 0.750977 5.89372 0.76046 5.86275 0.778462L0.365626 3.95254C0.334522 3.97057 0.30872 3.99648 0.290821 4.02766C0.272922 4.05884 0.263558 4.09419 0.263673 4.13014V10.4783C0.263674 10.5143 0.27315 10.5497 0.291149 10.5809C0.309149 10.612 0.335037 10.6379 0.366212 10.6559L5.86389 13.83C5.89506 13.848 5.93043 13.8575 5.96643 13.8575C6.00336 13.8575 6.03967 13.8481 6.0719 13.83L8.96484 12.1614V13.3676C8.96455 13.4825 8.98703 13.5962 9.031 13.7023C9.07496 13.8084 9.13954 13.9048 9.22098 13.9857C9.30242 14.0667 9.39912 14.1307 9.50547 14.1741C9.61182 14.2174 9.72571 14.2392 9.84056 14.2383H13.855C13.9701 14.2393 14.0843 14.2176 14.191 14.1744C14.2977 14.1311 14.3949 14.0672 14.4768 13.9863C14.5587 13.9054 14.6238 13.8091 14.6683 13.7029C14.7129 13.5967 14.736 13.4828 14.7363 13.3676V7.44672C14.7362 7.21275 14.6434 6.98835 14.4782 6.82264C14.313 6.65693 14.0889 6.56338 13.855 6.56249ZM12.4465 6.4453C12.5254 6.4453 12.6011 6.47666 12.657 6.53249C12.7128 6.58832 12.7441 6.66403 12.7441 6.74298V6.76285C12.7441 6.8418 12.7128 6.91752 12.657 6.97334C12.6011 7.02917 12.5254 7.06053 12.4465 7.06053H11.2547C11.1758 7.06053 11.1 7.02917 11.0442 6.97334C10.9884 6.91752 10.957 6.8418 10.957 6.76285V6.74298C10.957 6.66403 10.9884 6.58832 11.0442 6.53249C11.1 6.47666 11.1758 6.4453 11.2547 6.4453H12.4465ZM5.96643 1.19287L8.25082 2.51175L3.16365 5.44882L0.879288 4.12994L5.96643 1.19287ZM5.77149 13.2972L0.673829 10.3599V4.4849L5.77149 7.42217V13.2972ZM5.96643 7.06698L3.57381 5.6856L8.66098 2.74856L11.0537 4.12994L5.96643 7.06698ZM8.96484 7.44672V11.6878L6.18164 13.2972V7.42217L11.25 4.4849V6.03514H11.2564C11.1002 6.03661 10.9489 6.08886 10.8251 6.18401C10.7013 6.27915 10.6119 6.412 10.5703 6.56249H9.84056C9.60717 6.56362 9.3838 6.65741 9.21957 6.82324C9.05534 6.98907 8.96372 7.21334 8.96484 7.44672ZM14.3262 13.3676C14.3259 13.4289 14.3134 13.4896 14.2895 13.546C14.2656 13.6024 14.2307 13.6536 14.1869 13.6964C14.143 13.7393 14.0911 13.773 14.0341 13.7956C13.9772 13.8182 13.9163 13.8292 13.855 13.8281H9.84056C9.77956 13.8291 9.71898 13.818 9.66236 13.7953C9.60575 13.7725 9.55424 13.7387 9.51087 13.6958C9.4675 13.6529 9.43314 13.6018 9.40981 13.5454C9.38647 13.4891 9.37464 13.4286 9.375 13.3676V7.44672C9.37438 7.38501 9.38594 7.32378 9.40901 7.26654C9.43209 7.2093 9.46622 7.15717 9.50946 7.11313C9.5527 7.0691 9.60421 7.03402 9.66102 7.00992C9.71783 6.98581 9.77884 6.97314 9.84056 6.97264H10.5783C10.6223 7.1178 10.7121 7.2448 10.8344 7.33459C10.9566 7.42439 11.1047 7.47214 11.2564 7.47069H12.4392C12.5908 7.47214 12.7389 7.42439 12.8611 7.3346C12.9834 7.2448 13.0732 7.1178 13.1172 6.97264H13.855C13.9802 6.97343 14.1 7.02372 14.1883 7.11254C14.2766 7.20136 14.3261 7.3215 14.3262 7.44672V13.3676Z" fill="#8D8F92"/>
<path d="M10.0766 9.52148H10.2913C10.3457 9.52148 10.3979 9.49988 10.4363 9.46142C10.4748 9.42296 10.4964 9.3708 10.4964 9.31641C10.4964 9.26202 10.4748 9.20985 10.4363 9.17139C10.3979 9.13293 10.3457 9.11133 10.2913 9.11133H10.2832V8.55469H10.8489C10.8617 8.59592 10.8878 8.6318 10.923 8.65681C10.9582 8.68182 11.0006 8.6946 11.0438 8.69317C11.0983 8.69332 11.1506 8.67186 11.1892 8.6335C11.2279 8.59515 11.2497 8.54302 11.25 8.48856V8.35058C11.2496 8.29585 11.2275 8.24352 11.1887 8.20495C11.1499 8.16637 11.0974 8.14466 11.0427 8.14453H10.0766C10.0497 8.14467 10.0231 8.15011 9.99832 8.16054C9.97353 8.17098 9.95103 8.1862 9.93212 8.20534C9.91321 8.22448 9.89826 8.24715 9.88812 8.27208C9.87799 8.297 9.87287 8.32367 9.87305 8.35058V9.31664C9.87289 9.34348 9.87804 9.37009 9.88819 9.39493C9.89835 9.41978 9.91332 9.44237 9.93224 9.4614C9.95116 9.48044 9.97366 9.49555 9.99844 9.50586C10.0232 9.51617 10.0498 9.52148 10.0766 9.52148Z" fill="#8D8F92"/>
<path d="M10.0781 11.3965H11.0449C11.0993 11.3965 11.1515 11.3749 11.1899 11.3364C11.2284 11.298 11.25 11.2458 11.25 11.1914V10.2246C11.25 10.1702 11.2284 10.1181 11.1899 10.0796C11.1515 10.0411 11.0993 10.0195 11.0449 10.0195H10.0781C10.0237 10.0195 9.97157 10.0411 9.93311 10.0796C9.89465 10.1181 9.87305 10.1702 9.87305 10.2246V11.1914C9.87305 11.2458 9.89465 11.298 9.93311 11.3364C9.97157 11.3749 10.0237 11.3965 10.0781 11.3965ZM10.2832 10.4297H10.8398V10.9863H10.2832V10.4297Z" fill="#8D8F92"/>
<path d="M10.2913 12.8613H10.2832V12.3047H10.8378C10.8388 12.3586 10.861 12.41 10.8995 12.4478C10.938 12.4856 10.9898 12.5067 11.0437 12.5068C11.0976 12.5069 11.1495 12.4858 11.188 12.4481C11.2266 12.4104 11.2489 12.359 11.25 12.3051V12.1075C11.2498 12.052 11.2281 11.9988 11.1894 11.9591C11.1507 11.9194 11.0981 11.8962 11.0427 11.8945H10.0766C10.0216 11.8964 9.96949 11.9197 9.93144 11.9595C9.89339 11.9993 9.87243 12.0524 9.87306 12.1075V13.0736C9.87303 13.1 9.87832 13.1263 9.88862 13.1506C9.89891 13.175 9.914 13.1971 9.93298 13.2156C9.95197 13.234 9.97447 13.2485 9.99915 13.2581C10.0238 13.2677 10.0502 13.2723 10.0766 13.2715H10.2913C10.3457 13.2715 10.3979 13.2499 10.4363 13.2114C10.4748 13.173 10.4964 13.1208 10.4964 13.0664C10.4964 13.012 10.4748 12.9599 10.4363 12.9214C10.3979 12.8829 10.3457 12.8613 10.2913 12.8613Z" fill="#8D8F92"/>
<path d="M11.5142 8.3961L10.9137 8.99668L10.731 8.81396C10.7119 8.79491 10.6893 8.77981 10.6644 8.7695C10.6395 8.75919 10.6129 8.75389 10.5859 8.75389C10.559 8.75389 10.5323 8.75919 10.5075 8.7695C10.4826 8.77981 10.46 8.79491 10.4409 8.81396C10.4219 8.833 10.4068 8.85561 10.3965 8.88049C10.3862 8.90537 10.3809 8.93204 10.3809 8.95898C10.3809 8.98591 10.3862 9.01258 10.3965 9.03746C10.4068 9.06234 10.4219 9.08495 10.4409 9.104L10.7687 9.43171C10.7877 9.45076 10.8103 9.46586 10.8352 9.47617C10.8601 9.48648 10.8868 9.49178 10.9137 9.49178C10.9406 9.49178 10.9673 9.48648 10.9922 9.47617C11.0171 9.46586 11.0397 9.45076 11.0587 9.43171L11.8044 8.68605C11.8428 8.64758 11.8644 8.59542 11.8644 8.54103C11.8644 8.48663 11.8428 8.43447 11.8044 8.39601C11.7659 8.35754 11.7137 8.33594 11.6594 8.33594C11.605 8.33594 11.5528 8.35754 11.5143 8.39601L11.5142 8.3961Z" fill="#8D8F92"/>
<path d="M11.5142 12.1827L10.9137 12.7833L10.731 12.6006C10.7119 12.5815 10.6893 12.5664 10.6644 12.5561C10.6395 12.5458 10.6129 12.5405 10.5859 12.5405C10.559 12.5405 10.5323 12.5458 10.5075 12.5561C10.4826 12.5664 10.46 12.5815 10.4409 12.6006C10.4219 12.6196 10.4068 12.6422 10.3965 12.6671C10.3862 12.692 10.3809 12.7187 10.3809 12.7456C10.3809 12.7725 10.3862 12.7992 10.3965 12.8241C10.4068 12.849 10.4219 12.8716 10.4409 12.8906L10.7687 13.2183C10.7877 13.2374 10.8103 13.2525 10.8352 13.2628C10.8601 13.2731 10.8868 13.2784 10.9137 13.2784C10.9406 13.2784 10.9673 13.2731 10.9922 13.2628C11.0171 13.2525 11.0397 13.2374 11.0587 13.2183L11.8044 12.4727C11.8428 12.4342 11.8644 12.382 11.8644 12.3276C11.8644 12.2733 11.8428 12.2211 11.8044 12.1826C11.7659 12.1442 11.7137 12.1226 11.6594 12.1226C11.605 12.1226 11.5528 12.1442 11.5143 12.1826L11.5142 12.1827Z" fill="#8D8F92"/>
<path d="M13.6201 8.64258H12.332C12.2776 8.64258 12.2255 8.66418 12.187 8.70264C12.1486 8.7411 12.127 8.79327 12.127 8.84766C12.127 8.90205 12.1486 8.95421 12.187 8.99267C12.2255 9.03113 12.2776 9.05273 12.332 9.05273H13.6201C13.6745 9.05273 13.7267 9.03113 13.7651 8.99267C13.8036 8.95421 13.8252 8.90205 13.8252 8.84766C13.8252 8.79327 13.8036 8.7411 13.7651 8.70264C13.7267 8.66418 13.6745 8.64258 13.6201 8.64258Z" fill="#8D8F92"/>
<path d="M13.6201 10.5176H12.332C12.2776 10.5176 12.2255 10.5392 12.187 10.5776C12.1486 10.6161 12.127 10.6683 12.127 10.7227C12.127 10.777 12.1486 10.8292 12.187 10.8677C12.2255 10.9061 12.2776 10.9277 12.332 10.9277H13.6201C13.6745 10.9277 13.7267 10.9061 13.7651 10.8677C13.8036 10.8292 13.8252 10.777 13.8252 10.7227C13.8252 10.6683 13.8036 10.6161 13.7651 10.5776C13.7267 10.5392 13.6745 10.5176 13.6201 10.5176Z" fill="#8D8F92"/>
<path d="M13.6201 12.3926H12.332C12.2776 12.3926 12.2255 12.4142 12.187 12.4526C12.1486 12.4911 12.127 12.5433 12.127 12.5977C12.127 12.652 12.1486 12.7042 12.187 12.7427C12.2255 12.7811 12.2776 12.8027 12.332 12.8027H13.6201C13.6745 12.8027 13.7267 12.7811 13.7651 12.7427C13.8036 12.7042 13.8252 12.652 13.8252 12.5977C13.8252 12.5433 13.8036 12.4911 13.7651 12.4526C13.7267 12.4142 13.6745 12.3926 13.6201 12.3926Z" fill="#8D8F92"/>
</svg>
