<svg width="26" height="26" viewBox="0 0 26 26" fill="none" xmlns="http://www.w3.org/2000/svg">
<path d="M1 17.1665C1 15.5097 2.34315 14.1665 4 14.1665H11.9848V22.1513C11.9848 23.8081 10.6416 25.1513 8.98478 25.1513H4C2.34315 25.1513 1 23.8081 1 22.1513V17.1665Z" stroke="white" stroke-width="1.5"/>
<path d="M14.0156 19.5765C14.0156 16.5887 16.4378 14.1665 19.4256 14.1665H19.5904C22.5783 14.1665 25.0004 16.5886 25.0004 19.5765V19.7413C25.0004 22.7291 22.5783 25.1513 19.5904 25.1513H19.4256C16.4378 25.1513 14.0156 22.7291 14.0156 19.7413V19.5765Z" stroke="white" stroke-width="1.5"/>
<path d="M1 4.15137C1 2.49452 2.34315 1.15137 4 1.15137H8.98478C10.6416 1.15137 11.9848 2.49451 11.9848 4.15137V12.1361H4C2.34315 12.1361 1 10.793 1 9.13615V4.15137Z" stroke="white" stroke-width="1.5"/>
<path d="M14.0156 4.15137C14.0156 2.49452 15.3588 1.15137 17.0156 1.15137H22.0004C23.6573 1.15137 25.0004 2.49451 25.0004 4.15137V9.13614C25.0004 10.793 23.6573 12.1361 22.0004 12.1361H14.0156V4.15137Z" stroke="white" stroke-width="1.5"/>
</svg>
