<svg width="29" height="26" viewBox="0 0 29 26" fill="none" xmlns="http://www.w3.org/2000/svg">
<circle cx="14.6378" cy="6.31898" r="5.31898" stroke="white" stroke-width="2"/>
<path d="M14.6379 11.6367C8.28122 11.6367 2.96126 16.0755 1.60852 22.0227C1.24104 23.6383 2.61902 24.9988 4.27588 24.9988H25C26.6568 24.9988 28.0348 23.6383 27.6673 22.0227C26.3146 16.0755 20.9946 11.6367 14.6379 11.6367Z" stroke="white" stroke-width="2"/>
</svg>
